info face="Alagard" size=32 bold=0 italic=0 charset="" unicode=1 stretchH=100 smooth=0 aa=1 padding=0,0,0,0 spacing=1,1 outline=1
common lineHeight=32 base=26 scaleW=256 scaleH=256 pages=1 packed=0 alphaChnl=0 redChnl=4 greenChnl=4 blueChnl=4
page id=0 file="alagard_0.tga"
chars count=98
char id=32   x=242   y=150   width=5     height=3     xoffset=-2    yoffset=30    xadvance=11    page=0  chnl=15
char id=33   x=146   y=108   width=11    height=25    xoffset=-1    yoffset=2     xadvance=11    page=0  chnl=15
char id=34   x=151   y=154   width=17    height=12    xoffset=-1    yoffset=2     xadvance=17    page=0  chnl=15
char id=35   x=206   y=106   width=23    height=23    xoffset=-1    yoffset=4     xadvance=23    page=0  chnl=15
char id=36   x=0     y=0     width=19    height=32    xoffset=-1    yoffset=-1    xadvance=19    page=0  chnl=15
char id=37   x=177   y=0     width=28    height=27    xoffset=-1    yoffset=2     xadvance=28    page=0  chnl=15
char id=38   x=0     y=33    width=25    height=25    xoffset=-1    yoffset=2     xadvance=26    page=0  chnl=15
char id=39   x=169   y=154   width=8     height=12    xoffset=-1    yoffset=2     xadvance=9     page=0  chnl=15
char id=40   x=20    y=0     width=15    height=31    xoffset=-1    yoffset=2     xadvance=15    page=0  chnl=15
char id=41   x=36    y=0     width=15    height=31    xoffset=1     yoffset=2     xadvance=17    page=0  chnl=15
char id=42   x=115   y=156   width=15    height=14    xoffset=-1    yoffset=2     xadvance=15    page=0  chnl=15
char id=43   x=0     y=137   width=23    height=23    xoffset=-1    yoffset=4     xadvance=23    page=0  chnl=15
char id=44   x=178   y=154   width=8     height=12    xoffset=-1    yoffset=21    xadvance=9     page=0  chnl=15
char id=45   x=0     y=181   width=15    height=5     xoffset=-1    yoffset=16    xadvance=15    page=0  chnl=15
char id=46   x=235   y=150   width=6     height=6     xoffset=1     yoffset=21    xadvance=9     page=0  chnl=15
char id=47   x=182   y=108   width=23    height=23    xoffset=1     yoffset=4     xadvance=26    page=0  chnl=15
char id=48   x=90    y=110   width=17    height=25    xoffset=-1    yoffset=2     xadvance=17    page=0  chnl=15
char id=49   x=158   y=108   width=11    height=25    xoffset=-1    yoffset=2     xadvance=11    page=0  chnl=15
char id=50   x=240   y=78    width=15    height=25    xoffset=-1    yoffset=2     xadvance=15    page=0  chnl=15
char id=51   x=36    y=111   width=17    height=25    xoffset=-1    yoffset=2     xadvance=17    page=0  chnl=15
char id=52   x=232   y=26    width=21    height=25    xoffset=-1    yoffset=2     xadvance=21    page=0  chnl=15
char id=53   x=18    y=111   width=17    height=25    xoffset=-1    yoffset=2     xadvance=17    page=0  chnl=15
char id=54   x=194   y=54    width=19    height=25    xoffset=-1    yoffset=2     xadvance=19    page=0  chnl=15
char id=55   x=214   y=54    width=19    height=25    xoffset=-1    yoffset=2     xadvance=19    page=0  chnl=15
char id=56   x=154   y=56    width=19    height=25    xoffset=-1    yoffset=2     xadvance=19    page=0  chnl=15
char id=57   x=20    y=85    width=19    height=25    xoffset=-1    yoffset=2     xadvance=19    page=0  chnl=15
char id=58   x=108   y=156   width=6     height=17    xoffset=1     yoffset=10    xadvance=9     page=0  chnl=15
char id=59   x=60    y=137   width=8     height=23    xoffset=-1    yoffset=10    xadvance=9     page=0  chnl=15
char id=60   x=83    y=136   width=13    height=21    xoffset=-1    yoffset=6     xadvance=13    page=0  chnl=15
char id=61   x=207   y=152   width=17    height=11    xoffset=1     yoffset=12    xadvance=19    page=0  chnl=15
char id=62   x=69    y=137   width=13    height=21    xoffset=1     yoffset=6     xadvance=15    page=0  chnl=15
char id=63   x=24    y=137   width=17    height=23    xoffset=-1    yoffset=4     xadvance=17    page=0  chnl=15
char id=64   x=69    y=0     width=28    height=29    xoffset=-1    yoffset=4     xadvance=28    page=0  chnl=15
char id=65   x=60    y=84    width=19    height=25    xoffset=-1    yoffset=2     xadvance=19    page=0  chnl=15
char id=66   x=80    y=84    width=19    height=25    xoffset=-1    yoffset=2     xadvance=19    page=0  chnl=15
char id=67   x=120   y=82    width=19    height=25    xoffset=-1    yoffset=2     xadvance=19    page=0  chnl=15
char id=68   x=166   y=30    width=21    height=25    xoffset=-1    yoffset=2     xadvance=21    page=0  chnl=15
char id=69   x=188   y=28    width=21    height=25    xoffset=-1    yoffset=2     xadvance=21    page=0  chnl=15
char id=70   x=110   y=56    width=21    height=25    xoffset=-1    yoffset=2     xadvance=21    page=0  chnl=15
char id=71   x=0     y=85    width=19    height=25    xoffset=-1    yoffset=2     xadvance=19    page=0  chnl=15
char id=72   x=132   y=56    width=21    height=25    xoffset=-1    yoffset=2     xadvance=21    page=0  chnl=15
char id=73   x=170   y=108   width=11    height=25    xoffset=-1    yoffset=2     xadvance=11    page=0  chnl=15
char id=74   x=168   y=0     width=8     height=29    xoffset=-1    yoffset=2     xadvance=9     page=0  chnl=15
char id=75   x=66    y=58    width=21    height=25    xoffset=-1    yoffset=2     xadvance=21    page=0  chnl=15
char id=76   x=54    y=111   width=17    height=25    xoffset=-1    yoffset=2     xadvance=17    page=0  chnl=15
char id=77   x=224   y=0     width=28    height=25    xoffset=-1    yoffset=2     xadvance=28    page=0  chnl=15
char id=78   x=52    y=32    width=23    height=25    xoffset=-1    yoffset=2     xadvance=23    page=0  chnl=15
char id=79   x=100   y=82    width=19    height=25    xoffset=-1    yoffset=2     xadvance=19    page=0  chnl=15
char id=80   x=40    y=85    width=19    height=25    xoffset=-1    yoffset=2     xadvance=19    page=0  chnl=15
char id=81   x=98    y=0     width=21    height=29    xoffset=-1    yoffset=2     xadvance=21    page=0  chnl=15
char id=82   x=88    y=56    width=21    height=25    xoffset=-1    yoffset=2     xadvance=21    page=0  chnl=15
char id=83   x=234   y=52    width=19    height=25    xoffset=-1    yoffset=2     xadvance=19    page=0  chnl=15
char id=84   x=0     y=59    width=21    height=25    xoffset=-1    yoffset=2     xadvance=21    page=0  chnl=15
char id=85   x=76    y=30    width=23    height=25    xoffset=-1    yoffset=2     xadvance=23    page=0  chnl=15
char id=86   x=44    y=58    width=21    height=25    xoffset=-1    yoffset=2     xadvance=21    page=0  chnl=15
char id=87   x=26    y=32    width=25    height=25    xoffset=-1    yoffset=2     xadvance=26    page=0  chnl=15
char id=88   x=22    y=59    width=21    height=25    xoffset=-1    yoffset=2     xadvance=21    page=0  chnl=15
char id=89   x=210   y=28    width=21    height=25    xoffset=-1    yoffset=2     xadvance=21    page=0  chnl=15
char id=90   x=180   y=82    width=19    height=25    xoffset=-1    yoffset=2     xadvance=19    page=0  chnl=15
char id=91   x=144   y=0     width=11    height=29    xoffset=1     yoffset=2     xadvance=13    page=0  chnl=15
char id=92   x=230   y=106   width=23    height=23    xoffset=-1    yoffset=4     xadvance=23    page=0  chnl=15
char id=93   x=132   y=0     width=11    height=29    xoffset=-1    yoffset=2     xadvance=11    page=0  chnl=15
char id=94   x=131   y=154   width=19    height=12    xoffset=-1    yoffset=2     xadvance=19    page=0  chnl=15
char id=95   x=16    y=181   width=23    height=4     xoffset=-3    yoffset=23    xadvance=21    page=0  chnl=15
char id=96   x=225   y=150   width=9     height=8     xoffset=3     yoffset=2     xadvance=13    page=0  chnl=15
char id=97   x=0     y=161   width=17    height=19    xoffset=-1    yoffset=8     xadvance=17    page=0  chnl=15
char id=98   x=200   y=80    width=19    height=25    xoffset=-1    yoffset=2     xadvance=19    page=0  chnl=15
char id=99   x=18    y=161   width=17    height=19    xoffset=-1    yoffset=8     xadvance=17    page=0  chnl=15
char id=100  x=140   y=82    width=19    height=25    xoffset=-1    yoffset=2     xadvance=19    page=0  chnl=15
char id=101  x=36    y=161   width=17    height=19    xoffset=-1    yoffset=8     xadvance=17    page=0  chnl=15
char id=102  x=0     y=111   width=17    height=25    xoffset=-1    yoffset=2     xadvance=17    page=0  chnl=15
char id=103  x=174   y=56    width=19    height=25    xoffset=-1    yoffset=8     xadvance=19    page=0  chnl=15
char id=104  x=100   y=30    width=21    height=25    xoffset=-1    yoffset=2     xadvance=21    page=0  chnl=15
char id=105  x=122   y=108   width=11    height=25    xoffset=-1    yoffset=2     xadvance=11    page=0  chnl=15
char id=106  x=52    y=0     width=8     height=31    xoffset=-1    yoffset=2     xadvance=9     page=0  chnl=15
char id=107  x=144   y=30    width=21    height=25    xoffset=-1    yoffset=2     xadvance=21    page=0  chnl=15
char id=108  x=134   y=108   width=11    height=25    xoffset=-1    yoffset=2     xadvance=11    page=0  chnl=15
char id=109  x=97    y=136   width=28    height=19    xoffset=-1    yoffset=8     xadvance=28    page=0  chnl=15
char id=110  x=198   y=132   width=21    height=19    xoffset=-1    yoffset=8     xadvance=21    page=0  chnl=15
char id=111  x=72    y=159   width=17    height=19    xoffset=-1    yoffset=8     xadvance=17    page=0  chnl=15
char id=112  x=220   y=80    width=19    height=25    xoffset=-1    yoffset=8     xadvance=19    page=0  chnl=15
char id=113  x=160   y=82    width=19    height=25    xoffset=-1    yoffset=8     xadvance=19    page=0  chnl=15
char id=114  x=54    y=161   width=17    height=19    xoffset=-1    yoffset=8     xadvance=17    page=0  chnl=15
char id=115  x=240   y=130   width=15    height=19    xoffset=-1    yoffset=8     xadvance=15    page=0  chnl=15
char id=116  x=108   y=108   width=13    height=25    xoffset=-1    yoffset=2     xadvance=13    page=0  chnl=15
char id=117  x=176   y=134   width=21    height=19    xoffset=-1    yoffset=8     xadvance=21    page=0  chnl=15
char id=118  x=220   y=130   width=19    height=19    xoffset=-1    yoffset=8     xadvance=19    page=0  chnl=15
char id=119  x=126   y=134   width=25    height=19    xoffset=-1    yoffset=8     xadvance=26    page=0  chnl=15
char id=120  x=152   y=134   width=23    height=19    xoffset=-1    yoffset=8     xadvance=23    page=0  chnl=15
char id=121  x=72    y=110   width=17    height=25    xoffset=-1    yoffset=8     xadvance=17    page=0  chnl=15
char id=122  x=90    y=158   width=17    height=19    xoffset=-1    yoffset=8     xadvance=17    page=0  chnl=15
char id=123  x=156   y=0     width=11    height=29    xoffset=-1    yoffset=4     xadvance=11    page=0  chnl=15
char id=124  x=61    y=0     width=7     height=31    xoffset=3     yoffset=2     xadvance=11    page=0  chnl=15
char id=125  x=120   y=0     width=11    height=29    xoffset=-1    yoffset=4     xadvance=11    page=0  chnl=15
char id=126  x=187   y=154   width=19    height=11    xoffset=-1    yoffset=12    xadvance=19    page=0  chnl=15
char id=162  x=206   y=0     width=17    height=27    xoffset=-1    yoffset=4     xadvance=17    page=0  chnl=15
char id=163  x=42    y=137   width=17    height=23    xoffset=-1    yoffset=4     xadvance=17    page=0  chnl=15
char id=165  x=122   y=30    width=21    height=25    xoffset=-1    yoffset=2     xadvance=21    page=0  chnl=15
