info face="VCR OSD Mono" size=-32 bold=0 italic=0 charset="" unicode=1 stretchH=100 smooth=1 aa=1 padding=0,0,0,0 spacing=1,1 outline=0
common lineHeight=33 base=29 scaleW=256 scaleH=256 pages=2 packed=0 alphaChnl=1 redChnl=0 greenChnl=0 blueChnl=0
page id=0 file="pixelf_0.tga"
page id=1 file="pixelf_1.tga"
chars count=312
char id=0    x=254   y=48    width=0     height=1     xoffset=0     yoffset=32    xadvance=0     page=0  chnl=15
char id=29   x=253   y=0     width=0     height=1     xoffset=0     yoffset=32    xadvance=0     page=0  chnl=15
char id=32   x=250   y=48    width=3     height=1     xoffset=-1    yoffset=32    xadvance=19    page=0  chnl=15
char id=33   x=193   y=187   width=4     height=21    xoffset=6     yoffset=6     xadvance=19    page=0  chnl=15
char id=34   x=148   y=247   width=14    height=6     xoffset=2     yoffset=6     xadvance=19    page=0  chnl=15
char id=35   x=222   y=187   width=17    height=20    xoffset=1     yoffset=6     xadvance=19    page=0  chnl=15
char id=36   x=72    y=188   width=17    height=21    xoffset=1     yoffset=6     xadvance=19    page=0  chnl=15
char id=37   x=19    y=77    width=17    height=22    xoffset=1     yoffset=6     xadvance=19    page=0  chnl=15
char id=38   x=52    y=26    width=17    height=24    xoffset=1     yoffset=3     xadvance=19    page=0  chnl=15
char id=39   x=172   y=247   width=6     height=6     xoffset=6     yoffset=6     xadvance=19    page=0  chnl=15
char id=40   x=240   y=0     width=9     height=25    xoffset=4     yoffset=2     xadvance=19    page=0  chnl=15
char id=41   x=0     y=27    width=9     height=25    xoffset=6     yoffset=2     xadvance=19    page=0  chnl=15
char id=42   x=149   y=0     width=15    height=14    xoffset=2     yoffset=4     xadvance=19    page=1  chnl=15
char id=43   x=0     y=0     width=17    height=15    xoffset=1     yoffset=9     xadvance=19    page=1  chnl=15
char id=44   x=163   y=247   width=8     height=6     xoffset=4     yoffset=21    xadvance=19    page=0  chnl=15
char id=45   x=40    y=250   width=14    height=3     xoffset=2     yoffset=15    xadvance=19    page=0  chnl=15
char id=46   x=82    y=249   width=4     height=3     xoffset=6     yoffset=24    xadvance=19    page=0  chnl=15
char id=47   x=108   y=122   width=17    height=21    xoffset=1     yoffset=6     xadvance=19    page=0  chnl=15
char id=48   x=73    y=76    width=17    height=22    xoffset=1     yoffset=6     xadvance=19    page=0  chnl=15
char id=49   x=157   y=188   width=11    height=21    xoffset=4     yoffset=6     xadvance=19    page=0  chnl=15
char id=50   x=90    y=188   width=17    height=21    xoffset=1     yoffset=6     xadvance=19    page=0  chnl=15
char id=51   x=71    y=122   width=18    height=21    xoffset=1     yoffset=6     xadvance=20    page=0  chnl=15
char id=52   x=36    y=190   width=17    height=21    xoffset=1     yoffset=6     xadvance=19    page=0  chnl=15
char id=53   x=109   y=76    width=17    height=22    xoffset=1     yoffset=6     xadvance=19    page=0  chnl=15
char id=54   x=127   y=76    width=17    height=22    xoffset=1     yoffset=6     xadvance=19    page=0  chnl=15
char id=55   x=18    y=190   width=17    height=21    xoffset=1     yoffset=6     xadvance=19    page=0  chnl=15
char id=56   x=145   y=76    width=17    height=22    xoffset=1     yoffset=6     xadvance=19    page=0  chnl=15
char id=57   x=163   y=75    width=17    height=22    xoffset=1     yoffset=6     xadvance=19    page=0  chnl=15
char id=58   x=108   y=0     width=4     height=15    xoffset=6     yoffset=9     xadvance=19    page=1  chnl=15
char id=59   x=246   y=208   width=8     height=18    xoffset=2     yoffset=9     xadvance=19    page=0  chnl=15
char id=60   x=196   y=51    width=14    height=23    xoffset=2     yoffset=4     xadvance=19    page=0  chnl=15
char id=61   x=225   y=0     width=17    height=9     xoffset=1     yoffset=12    xadvance=19    page=1  chnl=15
char id=62   x=211   y=51    width=14    height=23    xoffset=2     yoffset=4     xadvance=19    page=0  chnl=15
char id=63   x=216   y=165   width=17    height=21    xoffset=1     yoffset=6     xadvance=19    page=0  chnl=15
char id=64   x=36    y=212   width=17    height=19    xoffset=1     yoffset=7     xadvance=19    page=0  chnl=15
char id=65   x=198   y=165   width=17    height=21    xoffset=1     yoffset=6     xadvance=19    page=0  chnl=15
char id=66   x=180   y=165   width=17    height=21    xoffset=1     yoffset=6     xadvance=19    page=0  chnl=15
char id=67   x=181   y=75    width=17    height=22    xoffset=1     yoffset=6     xadvance=19    page=0  chnl=15
char id=68   x=144   y=166   width=17    height=21    xoffset=1     yoffset=6     xadvance=19    page=0  chnl=15
char id=69   x=234   y=165   width=17    height=21    xoffset=1     yoffset=6     xadvance=19    page=0  chnl=15
char id=70   x=126   y=166   width=17    height=21    xoffset=1     yoffset=6     xadvance=19    page=0  chnl=15
char id=71   x=199   y=75    width=17    height=22    xoffset=1     yoffset=6     xadvance=19    page=0  chnl=15
char id=72   x=108   y=166   width=17    height=21    xoffset=1     yoffset=6     xadvance=19    page=0  chnl=15
char id=73   x=169   y=188   width=11    height=21    xoffset=4     yoffset=6     xadvance=19    page=0  chnl=15
char id=74   x=217   y=75    width=17    height=22    xoffset=1     yoffset=6     xadvance=19    page=0  chnl=15
char id=75   x=18    y=168   width=17    height=21    xoffset=1     yoffset=6     xadvance=19    page=0  chnl=15
char id=76   x=180   y=143   width=17    height=21    xoffset=1     yoffset=6     xadvance=19    page=0  chnl=15
char id=77   x=144   y=144   width=17    height=21    xoffset=1     yoffset=6     xadvance=19    page=0  chnl=15
char id=78   x=126   y=144   width=17    height=21    xoffset=1     yoffset=6     xadvance=19    page=0  chnl=15
char id=79   x=54    y=99    width=17    height=22    xoffset=1     yoffset=6     xadvance=19    page=0  chnl=15
char id=80   x=198   y=143   width=17    height=21    xoffset=1     yoffset=6     xadvance=19    page=0  chnl=15
char id=81   x=108   y=144   width=17    height=21    xoffset=1     yoffset=6     xadvance=19    page=0  chnl=15
char id=82   x=90    y=144   width=17    height=21    xoffset=1     yoffset=6     xadvance=19    page=0  chnl=15
char id=83   x=198   y=121   width=17    height=21    xoffset=1     yoffset=6     xadvance=19    page=0  chnl=15
char id=84   x=162   y=166   width=17    height=21    xoffset=1     yoffset=6     xadvance=19    page=0  chnl=15
char id=85   x=235   y=75    width=17    height=22    xoffset=1     yoffset=6     xadvance=19    page=0  chnl=15
char id=86   x=0     y=101   width=17    height=22    xoffset=1     yoffset=6     xadvance=19    page=0  chnl=15
char id=87   x=18    y=101   width=17    height=22    xoffset=1     yoffset=6     xadvance=19    page=0  chnl=15
char id=88   x=36    y=100   width=17    height=22    xoffset=1     yoffset=6     xadvance=19    page=0  chnl=15
char id=89   x=36    y=146   width=17    height=21    xoffset=1     yoffset=6     xadvance=19    page=0  chnl=15
char id=90   x=54    y=145   width=17    height=21    xoffset=1     yoffset=6     xadvance=19    page=0  chnl=15
char id=91   x=138   y=51    width=10    height=24    xoffset=6     yoffset=3     xadvance=19    page=0  chnl=15
char id=92   x=18    y=146   width=17    height=21    xoffset=1     yoffset=6     xadvance=19    page=0  chnl=15
char id=93   x=149   y=51    width=10    height=24    xoffset=3     yoffset=3     xadvance=19    page=0  chnl=15
char id=94   x=100   y=247   width=17    height=8     xoffset=1     yoffset=6     xadvance=19    page=0  chnl=15
char id=95   x=0     y=252   width=21    height=3     xoffset=-1    yoffset=26    xadvance=19    page=0  chnl=15
char id=96   x=190   y=247   width=9     height=4     xoffset=4     yoffset=6     xadvance=19    page=0  chnl=15
char id=97   x=156   y=210   width=17    height=18    xoffset=1     yoffset=9     xadvance=19    page=0  chnl=15
char id=98   x=72    y=99    width=17    height=22    xoffset=1     yoffset=6     xadvance=19    page=0  chnl=15
char id=99   x=174   y=210   width=17    height=18    xoffset=1     yoffset=10    xadvance=19    page=0  chnl=15
char id=100  x=90    y=99    width=17    height=22    xoffset=1     yoffset=6     xadvance=19    page=0  chnl=15
char id=101  x=118   y=229   width=17    height=17    xoffset=1     yoffset=10    xadvance=19    page=0  chnl=15
char id=102  x=126   y=188   width=15    height=21    xoffset=2     yoffset=6     xadvance=19    page=0  chnl=15
char id=103  x=192   y=209   width=17    height=18    xoffset=1     yoffset=9     xadvance=19    page=0  chnl=15
char id=104  x=234   y=143   width=17    height=21    xoffset=1     yoffset=6     xadvance=19    page=0  chnl=15
char id=105  x=240   y=187   width=11    height=20    xoffset=4     yoffset=7     xadvance=19    page=0  chnl=15
char id=106  x=226   y=51    width=11    height=23    xoffset=4     yoffset=4     xadvance=19    page=0  chnl=15
char id=107  x=54    y=189   width=17    height=21    xoffset=1     yoffset=6     xadvance=19    page=0  chnl=15
char id=108  x=250   y=26    width=5     height=21    xoffset=7     yoffset=6     xadvance=19    page=0  chnl=15
char id=109  x=136   y=229   width=17    height=17    xoffset=1     yoffset=10    xadvance=19    page=0  chnl=15
char id=110  x=64    y=231   width=17    height=17    xoffset=1     yoffset=10    xadvance=19    page=0  chnl=15
char id=111  x=84    y=210   width=17    height=18    xoffset=1     yoffset=10    xadvance=19    page=0  chnl=15
char id=112  x=120   y=210   width=17    height=18    xoffset=1     yoffset=9     xadvance=19    page=0  chnl=15
char id=113  x=102   y=210   width=17    height=18    xoffset=1     yoffset=9     xadvance=19    page=0  chnl=15
char id=114  x=82    y=231   width=17    height=17    xoffset=1     yoffset=10    xadvance=19    page=0  chnl=15
char id=115  x=100   y=229   width=17    height=17    xoffset=1     yoffset=10    xadvance=20    page=0  chnl=15
char id=116  x=181   y=187   width=11    height=21    xoffset=4     yoffset=6     xadvance=19    page=0  chnl=15
char id=117  x=138   y=210   width=17    height=18    xoffset=1     yoffset=10    xadvance=19    page=0  chnl=15
char id=118  x=228   y=208   width=17    height=18    xoffset=1     yoffset=10    xadvance=19    page=0  chnl=15
char id=119  x=0     y=233   width=17    height=18    xoffset=1     yoffset=10    xadvance=19    page=0  chnl=15
char id=120  x=190   y=229   width=17    height=17    xoffset=1     yoffset=10    xadvance=19    page=0  chnl=15
char id=121  x=210   y=208   width=17    height=18    xoffset=1     yoffset=9     xadvance=19    page=0  chnl=15
char id=122  x=172   y=229   width=17    height=17    xoffset=1     yoffset=10    xadvance=19    page=0  chnl=15
char id=123  x=0     y=0     width=11    height=26    xoffset=4     yoffset=2     xadvance=20    page=0  chnl=15
char id=124  x=10    y=27    width=5     height=25    xoffset=7     yoffset=2     xadvance=19    page=0  chnl=15
char id=125  x=12    y=0     width=11    height=26    xoffset=4     yoffset=2     xadvance=20    page=0  chnl=15
char id=126  x=130   y=247   width=17    height=6     xoffset=1     yoffset=14    xadvance=19    page=0  chnl=15
char id=160  x=252   y=123   width=3     height=1     xoffset=-1    yoffset=32    xadvance=19    page=0  chnl=15
char id=161  x=198   y=187   width=4     height=21    xoffset=9     yoffset=6     xadvance=19    page=0  chnl=15
char id=162  x=162   y=144   width=17    height=21    xoffset=1     yoffset=6     xadvance=19    page=0  chnl=15
char id=163  x=54    y=51    width=17    height=24    xoffset=1     yoffset=3     xadvance=19    page=0  chnl=15
char id=165  x=142   y=188   width=14    height=21    xoffset=2     yoffset=6     xadvance=19    page=0  chnl=15
char id=166  x=250   y=0     width=5     height=25    xoffset=7     yoffset=2     xadvance=19    page=0  chnl=15
char id=168  x=70    y=249   width=11    height=3     xoffset=4     yoffset=6     xadvance=19    page=0  chnl=15
char id=169  x=46    y=232   width=17    height=17    xoffset=1     yoffset=7     xadvance=19    page=0  chnl=15
char id=170  x=208   y=228   width=13    height=17    xoffset=2     yoffset=6     xadvance=19    page=0  chnl=15
char id=171  x=113   y=0     width=17    height=14    xoffset=1     yoffset=10    xadvance=19    page=1  chnl=15
char id=173  x=55    y=250   width=14    height=3     xoffset=2     yoffset=15    xadvance=19    page=0  chnl=15
char id=174  x=90    y=0     width=17    height=15    xoffset=1     yoffset=6     xadvance=19    page=1  chnl=15
char id=176  x=186   y=0     width=14    height=12    xoffset=1     yoffset=6     xadvance=19    page=1  chnl=15
char id=178  x=236   y=244   width=9     height=11    xoffset=4     yoffset=3     xadvance=19    page=0  chnl=15
char id=179  x=246   y=244   width=9     height=10    xoffset=4     yoffset=3     xadvance=19    page=0  chnl=15
char id=180  x=179   y=247   width=10    height=4     xoffset=5     yoffset=6     xadvance=19    page=0  chnl=15
char id=185  x=201   y=0     width=7     height=12    xoffset=6     yoffset=2     xadvance=19    page=1  chnl=15
char id=186  x=222   y=227   width=13    height=17    xoffset=2     yoffset=6     xadvance=19    page=0  chnl=15
char id=187  x=131   y=0     width=17    height=14    xoffset=1     yoffset=10    xadvance=19    page=1  chnl=15
char id=188  x=18    y=52    width=17    height=24    xoffset=1     yoffset=3     xadvance=19    page=0  chnl=15
char id=189  x=61    y=0     width=17    height=25    xoffset=1     yoffset=3     xadvance=19    page=0  chnl=15
char id=190  x=232   y=26    width=17    height=24    xoffset=1     yoffset=3     xadvance=19    page=0  chnl=15
char id=191  x=55    y=76    width=17    height=22    xoffset=1     yoffset=6     xadvance=19    page=0  chnl=15
char id=192  x=214   y=26    width=17    height=24    xoffset=1     yoffset=3     xadvance=19    page=0  chnl=15
char id=193  x=124   y=26    width=17    height=24    xoffset=1     yoffset=3     xadvance=19    page=0  chnl=15
char id=194  x=196   y=26    width=17    height=24    xoffset=1     yoffset=3     xadvance=19    page=0  chnl=15
char id=195  x=178   y=26    width=17    height=24    xoffset=1     yoffset=3     xadvance=19    page=0  chnl=15
char id=196  x=160   y=26    width=17    height=24    xoffset=1     yoffset=3     xadvance=19    page=0  chnl=15
char id=197  x=97    y=0     width=17    height=25    xoffset=1     yoffset=2     xadvance=19    page=0  chnl=15
char id=198  x=160   y=51    width=17    height=23    xoffset=1     yoffset=4     xadvance=19    page=0  chnl=15
char id=199  x=91    y=76    width=17    height=22    xoffset=1     yoffset=6     xadvance=19    page=0  chnl=15
char id=200  x=106   y=26    width=17    height=24    xoffset=1     yoffset=3     xadvance=19    page=0  chnl=15
char id=201  x=88    y=26    width=17    height=24    xoffset=1     yoffset=3     xadvance=19    page=0  chnl=15
char id=202  x=72    y=51    width=17    height=24    xoffset=1     yoffset=3     xadvance=19    page=0  chnl=15
char id=203  x=16    y=27    width=17    height=24    xoffset=1     yoffset=3     xadvance=19    page=0  chnl=15
char id=204  x=114   y=51    width=11    height=24    xoffset=4     yoffset=3     xadvance=19    page=0  chnl=15
char id=205  x=102   y=51    width=11    height=24    xoffset=4     yoffset=3     xadvance=19    page=0  chnl=15
char id=206  x=90    y=51    width=11    height=24    xoffset=4     yoffset=3     xadvance=19    page=0  chnl=15
char id=207  x=126   y=51    width=11    height=24    xoffset=4     yoffset=3     xadvance=19    page=0  chnl=15
char id=208  x=90    y=122   width=17    height=21    xoffset=1     yoffset=6     xadvance=19    page=0  chnl=15
char id=209  x=34    y=26    width=17    height=24    xoffset=1     yoffset=3     xadvance=19    page=0  chnl=15
char id=210  x=151   y=0     width=17    height=25    xoffset=1     yoffset=3     xadvance=19    page=0  chnl=15
char id=211  x=169   y=0     width=17    height=25    xoffset=1     yoffset=3     xadvance=19    page=0  chnl=15
char id=212  x=187   y=0     width=17    height=25    xoffset=1     yoffset=3     xadvance=19    page=0  chnl=15
char id=213  x=43    y=0     width=17    height=25    xoffset=1     yoffset=3     xadvance=19    page=0  chnl=15
char id=214  x=24    y=0     width=18    height=25    xoffset=1     yoffset=3     xadvance=20    page=0  chnl=15
char id=216  x=0     y=191   width=17    height=21    xoffset=1     yoffset=6     xadvance=19    page=0  chnl=15
char id=217  x=205   y=0     width=17    height=25    xoffset=1     yoffset=3     xadvance=19    page=0  chnl=15
char id=218  x=133   y=0     width=17    height=25    xoffset=1     yoffset=3     xadvance=19    page=0  chnl=15
char id=219  x=79    y=0     width=17    height=25    xoffset=1     yoffset=3     xadvance=19    page=0  chnl=15
char id=220  x=115   y=0     width=17    height=25    xoffset=1     yoffset=3     xadvance=19    page=0  chnl=15
char id=221  x=142   y=26    width=17    height=24    xoffset=1     yoffset=3     xadvance=19    page=0  chnl=15
char id=222  x=178   y=51    width=17    height=23    xoffset=1     yoffset=4     xadvance=19    page=0  chnl=15
char id=223  x=223   y=0     width=16    height=25    xoffset=1     yoffset=2     xadvance=19    page=0  chnl=15
char id=224  x=72    y=144   width=17    height=21    xoffset=1     yoffset=6     xadvance=19    page=0  chnl=15
char id=225  x=216   y=143   width=17    height=21    xoffset=1     yoffset=6     xadvance=19    page=0  chnl=15
char id=226  x=72    y=166   width=17    height=21    xoffset=1     yoffset=6     xadvance=19    page=0  chnl=15
char id=227  x=126   y=122   width=17    height=21    xoffset=1     yoffset=6     xadvance=19    page=0  chnl=15
char id=228  x=52    y=123   width=18    height=21    xoffset=1     yoffset=6     xadvance=20    page=0  chnl=15
char id=229  x=162   y=122   width=17    height=21    xoffset=1     yoffset=6     xadvance=19    page=0  chnl=15
char id=230  x=154   y=229   width=17    height=17    xoffset=1     yoffset=10    xadvance=19    page=0  chnl=15
char id=231  x=90    y=166   width=17    height=21    xoffset=1     yoffset=7     xadvance=19    page=0  chnl=15
char id=232  x=108   y=188   width=17    height=21    xoffset=1     yoffset=6     xadvance=19    page=0  chnl=15
char id=233  x=54    y=167   width=17    height=21    xoffset=1     yoffset=6     xadvance=19    page=0  chnl=15
char id=234  x=36    y=168   width=17    height=21    xoffset=1     yoffset=6     xadvance=19    page=0  chnl=15
char id=235  x=33    y=124   width=18    height=21    xoffset=1     yoffset=6     xadvance=20    page=0  chnl=15
char id=236  x=216   y=98    width=13    height=22    xoffset=2     yoffset=6     xadvance=19    page=0  chnl=15
char id=237  x=244   y=98    width=11    height=22    xoffset=4     yoffset=6     xadvance=19    page=0  chnl=15
char id=238  x=230   y=98    width=13    height=22    xoffset=2     yoffset=6     xadvance=19    page=0  chnl=15
char id=239  x=0     y=124   width=13    height=22    xoffset=2     yoffset=6     xadvance=19    page=0  chnl=15
char id=240  x=36    y=51    width=17    height=24    xoffset=1     yoffset=4     xadvance=19    page=0  chnl=15
char id=241  x=0     y=169   width=17    height=21    xoffset=1     yoffset=6     xadvance=19    page=0  chnl=15
char id=242  x=238   y=51    width=17    height=22    xoffset=1     yoffset=6     xadvance=19    page=0  chnl=15
char id=243  x=198   y=98    width=17    height=22    xoffset=1     yoffset=6     xadvance=19    page=0  chnl=15
char id=244  x=37    y=76    width=17    height=22    xoffset=1     yoffset=6     xadvance=19    page=0  chnl=15
char id=245  x=180   y=98    width=17    height=22    xoffset=1     yoffset=6     xadvance=19    page=0  chnl=15
char id=246  x=0     y=78    width=18    height=22    xoffset=1     yoffset=6     xadvance=20    page=0  chnl=15
char id=248  x=27    y=232   width=18    height=17    xoffset=1     yoffset=10    xadvance=20    page=0  chnl=15
char id=249  x=162   y=99    width=17    height=22    xoffset=1     yoffset=6     xadvance=19    page=0  chnl=15
char id=250  x=144   y=99    width=17    height=22    xoffset=1     yoffset=6     xadvance=19    page=0  chnl=15
char id=251  x=126   y=99    width=17    height=22    xoffset=1     yoffset=6     xadvance=19    page=0  chnl=15
char id=252  x=108   y=99    width=17    height=22    xoffset=1     yoffset=6     xadvance=19    page=0  chnl=15
char id=253  x=0     y=147   width=17    height=21    xoffset=1     yoffset=6     xadvance=19    page=0  chnl=15
char id=254  x=203   y=187   width=18    height=20    xoffset=1     yoffset=7     xadvance=20    page=0  chnl=15
char id=255  x=14    y=124   width=18    height=21    xoffset=1     yoffset=6     xadvance=20    page=0  chnl=15
char id=894  x=18    y=232   width=8     height=18    xoffset=2     yoffset=9     xadvance=19    page=0  chnl=15
char id=8216 x=226   y=245   width=6     height=9     xoffset=9     yoffset=6     xadvance=19    page=0  chnl=15
char id=8217 x=243   y=0     width=6     height=9     xoffset=4     yoffset=6     xadvance=19    page=1  chnl=15
char id=8220 x=0     y=16    width=15    height=9     xoffset=2     yoffset=6     xadvance=19    page=1  chnl=15
char id=8221 x=209   y=0     width=15    height=10    xoffset=2     yoffset=6     xadvance=19    page=1  chnl=15
char id=8226 x=118   y=247   width=11    height=8     xoffset=4     yoffset=12    xadvance=19    page=0  chnl=15
char id=8230 x=22    y=251   width=17    height=3     xoffset=1     yoffset=24    xadvance=19    page=0  chnl=15
char id=8249 x=165   y=0     width=10    height=14    xoffset=2     yoffset=13    xadvance=19    page=1  chnl=15
char id=8250 x=176   y=0     width=9     height=14    xoffset=4     yoffset=13    xadvance=19    page=1  chnl=15
char id=8260 x=234   y=121   width=17    height=21    xoffset=1     yoffset=6     xadvance=19    page=0  chnl=15
char id=8355 x=216   y=121   width=17    height=21    xoffset=1     yoffset=6     xadvance=19    page=0  chnl=15
char id=8356 x=70    y=26    width=17    height=24    xoffset=1     yoffset=3     xadvance=19    page=0  chnl=15
char id=8359 x=180   y=121   width=17    height=21    xoffset=1     yoffset=6     xadvance=19    page=0  chnl=15
char id=8364 x=0     y=53    width=17    height=24    xoffset=1     yoffset=3     xadvance=19    page=0  chnl=15
char id=8482 x=208   y=246   width=17    height=9     xoffset=1     yoffset=6     xadvance=19    page=0  chnl=15
char id=8592 x=72    y=0     width=17    height=15    xoffset=1     yoffset=9     xadvance=19    page=1  chnl=15
char id=8593 x=54    y=0     width=17    height=15    xoffset=1     yoffset=9     xadvance=19    page=1  chnl=15
char id=8594 x=36    y=0     width=17    height=15    xoffset=1     yoffset=9     xadvance=19    page=1  chnl=15
char id=8595 x=18    y=0     width=17    height=15    xoffset=1     yoffset=9     xadvance=19    page=1  chnl=15
char id=8596 x=236   y=227   width=17    height=16    xoffset=1     yoffset=10    xadvance=19    page=0  chnl=15
char id=8725 x=144   y=122   width=17    height=21    xoffset=1     yoffset=6     xadvance=19    page=0  chnl=15
char id=9650 x=0     y=213   width=17    height=19    xoffset=1     yoffset=7     xadvance=19    page=0  chnl=15
char id=9658 x=54    y=211   width=14    height=19    xoffset=2     yoffset=7     xadvance=19    page=0  chnl=15
char id=9660 x=18    y=212   width=17    height=19    xoffset=1     yoffset=7     xadvance=19    page=0  chnl=15
char id=9668 x=69    y=211   width=14    height=19    xoffset=3     yoffset=7     xadvance=19    page=0  chnl=15
char id=119155 x=252   y=127   width=3     height=1     xoffset=-1    yoffset=32    xadvance=19    page=0  chnl=15
char id=119156 x=84    y=229   width=3     height=1     xoffset=-1    yoffset=32    xadvance=19    page=0  chnl=15
char id=119157 x=88    y=229   width=3     height=1     xoffset=-1    yoffset=32    xadvance=19    page=0  chnl=15
char id=119158 x=92    y=229   width=3     height=1     xoffset=-1    yoffset=32    xadvance=19    page=0  chnl=15
char id=119159 x=96    y=229   width=3     height=1     xoffset=-1    yoffset=32    xadvance=19    page=0  chnl=15
char id=119160 x=87    y=249   width=3     height=1     xoffset=-1    yoffset=32    xadvance=19    page=0  chnl=15
char id=119161 x=91    y=249   width=3     height=1     xoffset=-1    yoffset=32    xadvance=19    page=0  chnl=15
char id=119162 x=95    y=249   width=3     height=1     xoffset=-1    yoffset=32    xadvance=19    page=0  chnl=15
char id=917505 x=130   y=254   width=3     height=1     xoffset=-1    yoffset=32    xadvance=19    page=0  chnl=15
char id=917536 x=134   y=254   width=3     height=1     xoffset=-1    yoffset=32    xadvance=19    page=0  chnl=15
char id=917537 x=138   y=254   width=3     height=1     xoffset=-1    yoffset=32    xadvance=19    page=0  chnl=15
char id=917538 x=142   y=254   width=3     height=1     xoffset=-1    yoffset=32    xadvance=19    page=0  chnl=15
char id=917539 x=146   y=254   width=3     height=1     xoffset=-1    yoffset=32    xadvance=19    page=0  chnl=15
char id=917540 x=150   y=254   width=3     height=1     xoffset=-1    yoffset=32    xadvance=19    page=0  chnl=15
char id=917541 x=154   y=254   width=3     height=1     xoffset=-1    yoffset=32    xadvance=19    page=0  chnl=15
char id=917542 x=158   y=254   width=3     height=1     xoffset=-1    yoffset=32    xadvance=19    page=0  chnl=15
char id=917543 x=162   y=254   width=3     height=1     xoffset=-1    yoffset=32    xadvance=19    page=0  chnl=15
char id=917544 x=166   y=254   width=3     height=1     xoffset=-1    yoffset=32    xadvance=19    page=0  chnl=15
char id=917545 x=170   y=254   width=3     height=1     xoffset=-1    yoffset=32    xadvance=19    page=0  chnl=15
char id=917546 x=174   y=254   width=3     height=1     xoffset=-1    yoffset=32    xadvance=19    page=0  chnl=15
char id=917547 x=178   y=254   width=3     height=1     xoffset=-1    yoffset=32    xadvance=19    page=0  chnl=15
char id=917548 x=182   y=252   width=3     height=1     xoffset=-1    yoffset=32    xadvance=19    page=0  chnl=15
char id=917549 x=186   y=252   width=3     height=1     xoffset=-1    yoffset=32    xadvance=19    page=0  chnl=15
char id=917550 x=190   y=252   width=3     height=1     xoffset=-1    yoffset=32    xadvance=19    page=0  chnl=15
char id=917551 x=194   y=252   width=3     height=1     xoffset=-1    yoffset=32    xadvance=19    page=0  chnl=15
char id=917552 x=198   y=252   width=3     height=1     xoffset=-1    yoffset=32    xadvance=19    page=0  chnl=15
char id=917553 x=202   y=247   width=3     height=1     xoffset=-1    yoffset=32    xadvance=19    page=0  chnl=15
char id=917554 x=40    y=254   width=3     height=1     xoffset=-1    yoffset=32    xadvance=19    page=0  chnl=15
char id=917555 x=44    y=254   width=3     height=1     xoffset=-1    yoffset=32    xadvance=19    page=0  chnl=15
char id=917556 x=48    y=254   width=3     height=1     xoffset=-1    yoffset=32    xadvance=19    page=0  chnl=15
char id=917557 x=52    y=254   width=3     height=1     xoffset=-1    yoffset=32    xadvance=19    page=0  chnl=15
char id=917558 x=56    y=254   width=3     height=1     xoffset=-1    yoffset=32    xadvance=19    page=0  chnl=15
char id=917559 x=60    y=254   width=3     height=1     xoffset=-1    yoffset=32    xadvance=19    page=0  chnl=15
char id=917560 x=64    y=254   width=3     height=1     xoffset=-1    yoffset=32    xadvance=19    page=0  chnl=15
char id=917561 x=68    y=254   width=3     height=1     xoffset=-1    yoffset=32    xadvance=19    page=0  chnl=15
char id=917562 x=72    y=253   width=3     height=1     xoffset=-1    yoffset=32    xadvance=19    page=0  chnl=15
char id=917563 x=76    y=253   width=3     height=1     xoffset=-1    yoffset=32    xadvance=19    page=0  chnl=15
char id=917564 x=80    y=253   width=3     height=1     xoffset=-1    yoffset=32    xadvance=19    page=0  chnl=15
char id=917565 x=84    y=253   width=3     height=1     xoffset=-1    yoffset=32    xadvance=19    page=0  chnl=15
char id=917566 x=88    y=251   width=3     height=1     xoffset=-1    yoffset=32    xadvance=19    page=0  chnl=15
char id=917567 x=92    y=251   width=3     height=1     xoffset=-1    yoffset=32    xadvance=19    page=0  chnl=15
char id=917568 x=96    y=251   width=3     height=1     xoffset=-1    yoffset=32    xadvance=19    page=0  chnl=15
char id=917569 x=182   y=254   width=3     height=1     xoffset=-1    yoffset=32    xadvance=19    page=0  chnl=15
char id=917570 x=186   y=254   width=3     height=1     xoffset=-1    yoffset=32    xadvance=19    page=0  chnl=15
char id=917571 x=190   y=254   width=3     height=1     xoffset=-1    yoffset=32    xadvance=19    page=0  chnl=15
char id=917572 x=194   y=254   width=3     height=1     xoffset=-1    yoffset=32    xadvance=19    page=0  chnl=15
char id=917573 x=198   y=254   width=3     height=1     xoffset=-1    yoffset=32    xadvance=19    page=0  chnl=15
char id=917574 x=202   y=249   width=3     height=1     xoffset=-1    yoffset=32    xadvance=19    page=0  chnl=15
char id=917575 x=88    y=253   width=3     height=1     xoffset=-1    yoffset=32    xadvance=19    page=0  chnl=15
char id=917576 x=92    y=253   width=3     height=1     xoffset=-1    yoffset=32    xadvance=19    page=0  chnl=15
char id=917577 x=96    y=253   width=3     height=1     xoffset=-1    yoffset=32    xadvance=19    page=0  chnl=15
char id=917578 x=202   y=251   width=3     height=1     xoffset=-1    yoffset=32    xadvance=19    page=0  chnl=15
char id=917579 x=202   y=253   width=3     height=1     xoffset=-1    yoffset=32    xadvance=19    page=0  chnl=15
char id=917580 x=152   y=15    width=3     height=1     xoffset=-1    yoffset=32    xadvance=19    page=1  chnl=15
char id=917581 x=148   y=15    width=3     height=1     xoffset=-1    yoffset=32    xadvance=19    page=1  chnl=15
char id=917582 x=208   y=13    width=3     height=1     xoffset=-1    yoffset=32    xadvance=19    page=1  chnl=15
char id=917583 x=140   y=15    width=3     height=1     xoffset=-1    yoffset=32    xadvance=19    page=1  chnl=15
char id=917584 x=136   y=15    width=3     height=1     xoffset=-1    yoffset=32    xadvance=19    page=1  chnl=15
char id=917585 x=132   y=15    width=3     height=1     xoffset=-1    yoffset=32    xadvance=19    page=1  chnl=15
char id=917586 x=128   y=15    width=3     height=1     xoffset=-1    yoffset=32    xadvance=19    page=1  chnl=15
char id=917587 x=124   y=15    width=3     height=1     xoffset=-1    yoffset=32    xadvance=19    page=1  chnl=15
char id=917588 x=120   y=15    width=3     height=1     xoffset=-1    yoffset=32    xadvance=19    page=1  chnl=15
char id=917589 x=116   y=15    width=3     height=1     xoffset=-1    yoffset=32    xadvance=19    page=1  chnl=15
char id=917590 x=112   y=16    width=3     height=1     xoffset=-1    yoffset=32    xadvance=19    page=1  chnl=15
char id=917591 x=108   y=16    width=3     height=1     xoffset=-1    yoffset=32    xadvance=19    page=1  chnl=15
char id=917592 x=104   y=16    width=3     height=1     xoffset=-1    yoffset=32    xadvance=19    page=1  chnl=15
char id=917593 x=100   y=16    width=3     height=1     xoffset=-1    yoffset=32    xadvance=19    page=1  chnl=15
char id=917594 x=96    y=16    width=3     height=1     xoffset=-1    yoffset=32    xadvance=19    page=1  chnl=15
char id=917595 x=92    y=16    width=3     height=1     xoffset=-1    yoffset=32    xadvance=19    page=1  chnl=15
char id=917596 x=88    y=16    width=3     height=1     xoffset=-1    yoffset=32    xadvance=19    page=1  chnl=15
char id=917597 x=84    y=16    width=3     height=1     xoffset=-1    yoffset=32    xadvance=19    page=1  chnl=15
char id=917598 x=80    y=16    width=3     height=1     xoffset=-1    yoffset=32    xadvance=19    page=1  chnl=15
char id=917599 x=176   y=15    width=3     height=1     xoffset=-1    yoffset=32    xadvance=19    page=1  chnl=15
char id=917600 x=72    y=16    width=3     height=1     xoffset=-1    yoffset=32    xadvance=19    page=1  chnl=15
char id=917601 x=68    y=16    width=3     height=1     xoffset=-1    yoffset=32    xadvance=19    page=1  chnl=15
char id=917602 x=64    y=16    width=3     height=1     xoffset=-1    yoffset=32    xadvance=19    page=1  chnl=15
char id=917603 x=60    y